simulation/qsim/LogicalStep_Lab4.msim.vcd
$comment
	File created using the following command:
		vcd file LogicalStep_Lab4.msim.vcd -direction
$end
$date
	Sun Jul 26 13:53:44 2020
$end
$version
	ModelSim Version 10.5b
$end
$timescale
	1ps
$end

$scope module logicalstep_lab4_top_vhd_vec_tst $end
$var wire 1 ! Clk $end
$var wire 1 " leds [15] $end
$var wire 1 # leds [14] $end
$var wire 1 $ leds [13] $end
$var wire 1 % leds [12] $end
$var wire 1 & leds [11] $end
$var wire 1 ' leds [10] $end
$var wire 1 ( leds [9] $end
$var wire 1 ) leds [8] $end
$var wire 1 * leds [7] $end
$var wire 1 + leds [6] $end
$var wire 1 , leds [5] $end
$var wire 1 - leds [4] $end
$var wire 1 . leds [3] $end
$var wire 1 / leds [2] $end
$var wire 1 0 leds [1] $end
$var wire 1 1 leds [0] $end
$var wire 1 2 pb [3] $end
$var wire 1 3 pb [2] $end
$var wire 1 4 pb [1] $end
$var wire 1 5 pb [0] $end
$var wire 1 6 rst_n $end
$var wire 1 7 sw [7] $end
$var wire 1 8 sw [6] $end
$var wire 1 9 sw [5] $end
$var wire 1 : sw [4] $end
$var wire 1 ; sw [3] $end
$var wire 1 < sw [2] $end
$var wire 1 = sw [1] $end
$var wire 1 > sw [0] $end

$scope module i1 $end
$var wire 1 ? gnd $end
$var wire 1 @ vcc $end
$var wire 1 A unknown $end
$var wire 1 B devoe $end
$var wire 1 C devclrn $end
$var wire 1 D devpor $end
$var wire 1 E ww_devoe $end
$var wire 1 F ww_devclrn $end
$var wire 1 G ww_devpor $end
$var wire 1 H ww_Clk $end
$var wire 1 I ww_rst_n $end
$var wire 1 J ww_pb [3] $end
$var wire 1 K ww_pb [2] $end
$var wire 1 L ww_pb [1] $end
$var wire 1 M ww_pb [0] $end
$var wire 1 N ww_sw [7] $end
$var wire 1 O ww_sw [6] $end
$var wire 1 P ww_sw [5] $end
$var wire 1 Q ww_sw [4] $end
$var wire 1 R ww_sw [3] $end
$var wire 1 S ww_sw [2] $end
$var wire 1 T ww_sw [1] $end
$var wire 1 U ww_sw [0] $end
$var wire 1 V ww_leds [15] $end
$var wire 1 W ww_leds [14] $end
$var wire 1 X ww_leds [13] $end
$var wire 1 Y ww_leds [12] $end
$var wire 1 Z ww_leds [11] $end
$var wire 1 [ ww_leds [10] $end
$var wire 1 \ ww_leds [9] $end
$var wire 1 ] ww_leds [8] $end
$var wire 1 ^ ww_leds [7] $end
$var wire 1 _ ww_leds [6] $end
$var wire 1 ` ww_leds [5] $end
$var wire 1 a ww_leds [4] $end
$var wire 1 b ww_leds [3] $end
$var wire 1 c ww_leds [2] $end
$var wire 1 d ww_leds [1] $end
$var wire 1 e ww_leds [0] $end
$var wire 1 f \pb[3]~input_o\ $end
$var wire 1 g \leds[0]~output_o\ $end
$var wire 1 h \leds[1]~output_o\ $end
$var wire 1 i \leds[2]~output_o\ $end
$var wire 1 j \leds[3]~output_o\ $end
$var wire 1 k \leds[4]~output_o\ $end
$var wire 1 l \leds[5]~output_o\ $end
$var wire 1 m \leds[6]~output_o\ $end
$var wire 1 n \leds[7]~output_o\ $end
$var wire 1 o \leds[8]~output_o\ $end
$var wire 1 p \leds[9]~output_o\ $end
$var wire 1 q \leds[10]~output_o\ $end
$var wire 1 r \leds[11]~output_o\ $end
$var wire 1 s \leds[12]~output_o\ $end
$var wire 1 t \leds[13]~output_o\ $end
$var wire 1 u \leds[14]~output_o\ $end
$var wire 1 v \leds[15]~output_o\ $end
$var wire 1 w \Clk~input_o\ $end
$var wire 1 x \ydir|sm0|count|ud_bin_counter[1]~5_cout\ $end
$var wire 1 y \ydir|sm0|count|ud_bin_counter[1]~6_combout\ $end
$var wire 1 z \rst_n~input_o\ $end
$var wire 1 { \ydir|sm0|count|ud_bin_counter[1]~7\ $end
$var wire 1 | \ydir|sm0|count|ud_bin_counter[2]~8_combout\ $end
$var wire 1 } \ydir|Button_Detection~0_combout\ $end
$var wire 1 ~ \sw[3]~input_o\ $end
$var wire 1 !! \pb[2]~input_o\ $end
$var wire 1 "! \ydir|next_target_position[2]~0_combout\ $end
$var wire 1 #! \ydir|next_target_position[3]~1_combout\ $end
$var wire 1 $! \sw[2]~input_o\ $end
$var wire 1 %! \ydir|next_target_position[2]~2_combout\ $end
$var wire 1 &! \sw[1]~input_o\ $end
$var wire 1 '! \ydir|next_target_position[1]~3_combout\ $end
$var wire 1 (! \sw[0]~input_o\ $end
$var wire 1 )! \ydir|next_target_position[0]~4_combout\ $end
$var wire 1 *! \ydir|Equal0~0_combout\ $end
$var wire 1 +! \ydir|position[2]~0_combout\ $end
$var wire 1 ,! \ydir|target_position[2]~0_combout\ $end
$var wire 1 -! \ydir|target_position[2]~1_combout\ $end
$var wire 1 .! \ydir|target_position[2]~2_combout\ $end
$var wire 1 /! \ydir|comp0|a_great_b~1_combout\ $end
$var wire 1 0! \ydir|sm0|count|ud_bin_counter[0]~3_combout\ $end
$var wire 1 1! \ydir|comp0|a_equal_b~0_combout\ $end
$var wire 1 2! \ydir|sm0|count|process_0~0_combout\ $end
$var wire 1 3! \ydir|comp0|a_lesser_b~0_combout\ $end
$var wire 1 4! \ydir|comp0|a_lesser_b~1_combout\ $end
$var wire 1 5! \ydir|sm0|count|process_0~1_combout\ $end
$var wire 1 6! \ydir|sm0|count|ud_bin_counter[2]~9\ $end
$var wire 1 7! \ydir|sm0|count|ud_bin_counter[3]~10_combout\ $end
$var wire 1 8! \ydir|comp0|a_great_b~0_combout\ $end
$var wire 1 9! \ydir|comp0|a_great_b~2_combout\ $end
$var wire 1 :! \ydir|comp0|a_great_b~3_combout\ $end
$var wire 1 ;! \ydir|comp0|a_lesser_b~2_combout\ $end
$var wire 1 <! \ydir|sm0|Selector1~0_combout\ $end
$var wire 1 =! \ydir|sm0|current_state.S2~q\ $end
$var wire 1 >! \ydir|sm0|Selector0~0_combout\ $end
$var wire 1 ?! \ydir|sm0|current_state.S0~q\ $end
$var wire 1 @! \ydir|motion_flag_in~0_combout\ $end
$var wire 1 A! \ydir|motion_flag_in~q\ $end
$var wire 1 B! \ydir|in_motion~q\ $end
$var wire 1 C! \pb[1]~input_o\ $end
$var wire 1 D! \xdir|sm0|count|ud_bin_counter[1]~5_cout\ $end
$var wire 1 E! \xdir|sm0|count|ud_bin_counter[1]~6_combout\ $end
$var wire 1 F! \xdir|sm0|count|ud_bin_counter[1]~7\ $end
$var wire 1 G! \xdir|sm0|count|ud_bin_counter[2]~8_combout\ $end
$var wire 1 H! \xdir|Button_Detection~0_combout\ $end
$var wire 1 I! \sw[7]~input_o\ $end
$var wire 1 J! \xdir|next_target_position[2]~0_combout\ $end
$var wire 1 K! \xdir|next_target_position[3]~1_combout\ $end
$var wire 1 L! \sw[6]~input_o\ $end
$var wire 1 M! \xdir|next_target_position[2]~2_combout\ $end
$var wire 1 N! \sw[5]~input_o\ $end
$var wire 1 O! \xdir|next_target_position[1]~3_combout\ $end
$var wire 1 P! \sw[4]~input_o\ $end
$var wire 1 Q! \xdir|next_target_position[0]~4_combout\ $end
$var wire 1 R! \xdir|Equal0~0_combout\ $end
$var wire 1 S! \xdir|position[2]~0_combout\ $end
$var wire 1 T! \xdir|target_position[2]~0_combout\ $end
$var wire 1 U! \xdir|target_position[2]~1_combout\ $end
$var wire 1 V! \xdir|target_position[2]~2_combout\ $end
$var wire 1 W! \xdir|comp0|a_great_b~1_combout\ $end
$var wire 1 X! \xdir|sm0|count|ud_bin_counter[0]~3_combout\ $end
$var wire 1 Y! \xdir|comp0|a_equal_b~0_combout\ $end
$var wire 1 Z! \xdir|sm0|count|process_0~0_combout\ $end
$var wire 1 [! \xdir|comp0|a_lesser_b~0_combout\ $end
$var wire 1 \! \xdir|comp0|a_lesser_b~1_combout\ $end
$var wire 1 ]! \xdir|sm0|count|process_0~1_combout\ $end
$var wire 1 ^! \xdir|sm0|count|ud_bin_counter[2]~9\ $end
$var wire 1 _! \xdir|sm0|count|ud_bin_counter[3]~10_combout\ $end
$var wire 1 `! \xdir|comp0|a_great_b~0_combout\ $end
$var wire 1 a! \xdir|comp0|a_great_b~2_combout\ $end
$var wire 1 b! \xdir|comp0|a_great_b~3_combout\ $end
$var wire 1 c! \xdir|comp0|a_lesser_b~2_combout\ $end
$var wire 1 d! \xdir|sm0|Selector1~0_combout\ $end
$var wire 1 e! \xdir|sm0|current_state.S2~q\ $end
$var wire 1 f! \xdir|sm0|Selector0~0_combout\ $end
$var wire 1 g! \xdir|sm0|current_state.S0~q\ $end
$var wire 1 h! \xdir|motion_flag_in~0_combout\ $end
$var wire 1 i! \xdir|motion_flag_in~q\ $end
$var wire 1 j! \xdir|in_motion~q\ $end
$var wire 1 k! \Extendo|Selector2~0_combout\ $end
$var wire 1 l! \ShiftReg|sreg~3_combout\ $end
$var wire 1 m! \Extendo|clk_en~combout\ $end
$var wire 1 n! \ShiftReg|sreg~2_combout\ $end
$var wire 1 o! \ShiftReg|sreg~1_combout\ $end
$var wire 1 p! \ShiftReg|sreg~0_combout\ $end
$var wire 1 q! \Extendo|Selector4~0_combout\ $end
$var wire 1 r! \Extendo|Selector2~1_combout\ $end
$var wire 1 s! \Extendo|current_state.extending~q\ $end
$var wire 1 t! \Extendo|Selector4~1_combout\ $end
$var wire 1 u! \Extendo|current_state.extended~q\ $end
$var wire 1 v! \Extendo|Selector1~0_combout\ $end
$var wire 1 w! \Extendo|Selector3~0_combout\ $end
$var wire 1 x! \Extendo|current_state.retracting~q\ $end
$var wire 1 y! \Extendo|Selector1~1_combout\ $end
$var wire 1 z! \Extendo|Selector1~2_combout\ $end
$var wire 1 {! \Extendo|current_state.retracted~q\ $end
$var wire 1 |! \Extendo|Selector0~0_combout\ $end
$var wire 1 }! \Extendo|current_state.disabled~q\ $end
$var wire 1 ~! \xdir|SYSTEM_FAULT_ERROR~0_combout\ $end
$var wire 1 !" \xdir|SYSTEM_FAULT_ERROR~1_combout\ $end
$var wire 1 "" \xdir|SYSTEM_FAULT_ERROR~q\ $end
$var wire 1 #" \pb[0]~input_o\ $end
$var wire 1 $" \Grap|current_state~0_combout\ $end
$var wire 1 %" \Grap|current_state~q\ $end
$var wire 1 &" \xdir|next_target_position\ [3] $end
$var wire 1 '" \xdir|next_target_position\ [2] $end
$var wire 1 (" \xdir|next_target_position\ [1] $end
$var wire 1 )" \xdir|next_target_position\ [0] $end
$var wire 1 *" \ydir|sm0|count|ud_bin_counter\ [3] $end
$var wire 1 +" \ydir|sm0|count|ud_bin_counter\ [2] $end
$var wire 1 ," \ydir|sm0|count|ud_bin_counter\ [1] $end
$var wire 1 -" \ydir|sm0|count|ud_bin_counter\ [0] $end
$var wire 1 ." \xdir|position\ [3] $end
$var wire 1 /" \xdir|position\ [2] $end
$var wire 1 0" \xdir|position\ [1] $end
$var wire 1 1" \xdir|position\ [0] $end
$var wire 1 2" \xdir|sm0|count|ud_bin_counter\ [3] $end
$var wire 1 3" \xdir|sm0|count|ud_bin_counter\ [2] $end
$var wire 1 4" \xdir|sm0|count|ud_bin_counter\ [1] $end
$var wire 1 5" \xdir|sm0|count|ud_bin_counter\ [0] $end
$var wire 1 6" \ShiftReg|sreg\ [3] $end
$var wire 1 7" \ShiftReg|sreg\ [2] $end
$var wire 1 8" \ShiftReg|sreg\ [1] $end
$var wire 1 9" \ShiftReg|sreg\ [0] $end
$var wire 1 :" \ydir|position\ [3] $end
$var wire 1 ;" \ydir|position\ [2] $end
$var wire 1 <" \ydir|position\ [1] $end
$var wire 1 =" \ydir|position\ [0] $end
$var wire 1 >" \ydir|current_position\ [3] $end
$var wire 1 ?" \ydir|current_position\ [2] $end
$var wire 1 @" \ydir|current_position\ [1] $end
$var wire 1 A" \ydir|current_position\ [0] $end
$var wire 1 B" \ydir|next_target_position\ [3] $end
$var wire 1 C" \ydir|next_target_position\ [2] $end
$var wire 1 D" \ydir|next_target_position\ [1] $end
$var wire 1 E" \ydir|next_target_position\ [0] $end
$var wire 1 F" \xdir|current_position\ [3] $end
$var wire 1 G" \xdir|current_position\ [2] $end
$var wire 1 H" \xdir|current_position\ [1] $end
$var wire 1 I" \xdir|current_position\ [0] $end
$var wire 1 J" \ydir|target_position\ [3] $end
$var wire 1 K" \ydir|target_position\ [2] $end
$var wire 1 L" \ydir|target_position\ [1] $end
$var wire 1 M" \ydir|target_position\ [0] $end
$var wire 1 N" \xdir|target_position\ [3] $end
$var wire 1 O" \xdir|target_position\ [2] $end
$var wire 1 P" \xdir|target_position\ [1] $end
$var wire 1 Q" \xdir|target_position\ [0] $end
$var wire 1 R" \ALT_INV_Clk~input_o\ $end
$upscope $end
$upscope $end
$enddefinitions $end
#0
$dumpvars
0!
06
0?
1@
xA
1B
1C
1D
1E
1F
1G
0H
0I
xf
0g
0h
0i
0j
0k
0l
0m
0n
0o
0p
0q
0r
0s
0t
0u
0v
0w
0x
1y
0z
1{
1|
1}
0~
0!!
0"!
0#!
0$!
0%!
0&!
0'!
0(!
0)!
1*!
0+!
0,!
0-!
0.!
1/!
00!
01!
02!
03!
04!
05!
06!
17!
08!
09!
0:!
0;!
0<!
0=!
0>!
0?!
0@!
0A!
0B!
0C!
0D!
1E!
1F!
1G!
1H!
0I!
0J!
0K!
0L!
0M!
0N!
0O!
0P!
0Q!
1R!
0S!
0T!
0U!
0V!
1W!
0X!
0Y!
0Z!
0[!
0\!
0]!
0^!
1_!
0`!
0a!
0b!
0c!
0d!
0e!
0f!
0g!
0h!
0i!
0j!
0k!
0l!
0m!
0n!
0o!
0p!
0q!
0r!
0s!
0t!
0u!
1v!
0w!
0x!
0y!
1z!
0{!
1|!
0}!
0~!
0!"
0""
0#"
0$"
0%"
1R"
x2
03
04
05
07
08
09
0:
0;
0<
0=
0>
xJ
0K
0L
0M
0N
0O
0P
0Q
0R
0S
0T
0U
0V
0W
0X
0Y
0Z
0[
0\
0]
0^
0_
0`
0a
0b
0c
0d
0e
0&"
0'"
0("
0)"
0*"
0+"
0,"
0-"
0."
0/"
00"
01"
02"
03"
04"
05"
06"
07"
08"
09"
0:"
0;"
0<"
0="
0>"
0?"
0@"
0A"
0B"
0C"
0D"
0E"
0F"
0G"
0H"
0I"
0J"
0K"
0L"
0M"
0N"
0O"
0P"
0Q"
0"
0#
0$
0%
0&
0'
0(
0)
0*
0+
0,
0-
0.
0/
00
01
$end
#10000
1!
1=
1;
1:
18
1H
1T
1R
1Q
1O
1L!
1P!
1~
1&!
1w
0R"
#20000
0!
16
0H
1I
1z
0w
1R"
#30000
1!
1H
1w
0R"
1{!
1}!
#40000
0!
0H
0w
1R"
#50000
1!
13
1H
1K
1!!
1w
0R"
1"!
1J!
1M!
1Q!
1#!
1'!
#60000
0!
0H
0w
1R"
#70000
1!
1H
1w
0R"
1B"
1D"
1'"
1)"
1T!
0R!
1U!
1,!
0*!
1-!
0}
1+!
1@!
0H!
1S!
1h!
0M!
0Q!
1V!
0#!
0'!
1.!
#80000
0!
0H
0w
1R"
#90000
1!
1H
1w
0R"
0B"
0D"
1L"
1J"
1A!
0'"
0)"
1Q"
1O"
1i!
1H!
0h!
0W!
1[!
1Y!
1\!
1R!
1}
0@!
0/!
13!
11!
14!
1*!
10!
12!
1;!
1#!
1'!
0.!
1X!
1Z!
1c!
1M!
1Q!
0V!
1f!
1]!
1>!
15!
0y
0|
07!
0E!
0G!
0_!
#100000
0!
0H
0w
1R"
1-"
15"
1D!
0X!
1x
00!
1y
1E!
#110000
1!
1H
1w
0R"
1B"
1D"
1="
1?!
0A!
1B!
1'"
1)"
11"
1g!
0i!
1j!
1i
1h
1y!
0S!
1X!
0Z!
0Y!
0\!
0T!
0R!
0U!
0z!
0|!
0+!
10!
02!
0,!
0*!
0-!
1c
1d
0}
1+!
1@!
05!
0H!
1S!
1h!
0]!
10
1/
0E!
0F!
1G!
1_!
0M!
0Q!
0y
0{
1|
17!
0#!
0'!
0|
16!
0G!
1^!
0_!
07!
#120000
0!
03
0H
0K
0!!
0w
1R"
#130000
1!
1H
1w
0R"
0B"
0D"
1A!
0B!
0'"
0)"
1i!
0j!
0{!
0}!
1A"
1I"
1s
1o
0i
0h
0y!
1H!
0X!
1Z!
1T!
1R!
1U!
1|!
1}
00!
12!
1,!
1*!
1-!
1Y
1]
0c
0d
15!
0"!
1#!
1'!
1]!
0J!
1M!
1Q!
1z!
00
0/
1)
1%
0M!
0Q!
1E!
1F!
1G!
0^!
1_!
0#!
0'!
1y
1{
1|
06!
17!
07!
0|
0_!
0G!
#140000
0!
0H
0w
1R"
1,"
0-"
14"
05"
0D!
1X!
0E!
0F!
0x
10!
0y
0{
1|
1y
1{
1G!
1E!
1F!
0G!
0|
#150000
1!
1H
1w
0R"
0="
1<"
1B!
01"
10"
1j!
1{!
1}!
1i
1h
1y!
1Y!
1a!
0z!
0|!
01!
04!
1c
1d
10
1/
#160000
0!
0H
0w
1R"
1-"
15"
1D!
0X!
1x
00!
0y
0{
0E!
0F!
1G!
1|
#170000
1!
1H
1w
0R"
1="
11"
0{!
0}!
0A"
1@"
0I"
1H"
1t
0s
1p
0o
11!
19!
1X
0Y
1\
0]
0)
1(
0%
1$
#180000
0!
0H
0w
1R"
0,"
1+"
0-"
04"
13"
05"
0D!
1X!
0G!
1^!
1E!
1F!
0x
10!
0|
16!
1y
1{
1|
06!
17!
0y
1G!
0^!
1_!
0E!
0_!
07!
#190000
1!
1H
1w
0R"
1;"
0="
0<"
1/"
01"
00"
1A"
1I"
1s
1o
1\!
0a!
1W!
0[!
14!
09!
1Y
1]
1)
1%
#200000
0!
0H
0w
1R"
1-"
15"
1D!
0X!
1x
00!
1y
1E!
#210000
1!
1H
1w
0R"
1="
11"
0A"
0@"
1?"
0I"
0H"
1G"
1u
0t
0s
1q
0p
0o
0Y!
0\!
1W
0X
0Y
1[
0\
0]
0]!
0c!
1X!
0Z!
0)
0(
1'
0%
0$
1#
0f!
0E!
0F!
0G!
1^!
1_!
0_!
1G!
#220000
0!
0H
0w
1R"
1,"
0-"
0x
10!
0y
0{
0|
16!
1y
1{
1|
06!
17!
07!
#230000
1!
1H
1w
0R"
0="
1<"
0g!
1A"
1I"
1s
1o
0h!
01!
04!
1Y
1]
1)
1%
#240000
0!
0H
0w
1R"
1-"
1x
00!
0y
0{
0|
16!
17!
#250000
1!
1H
1w
0R"
1="
0i!
0A"
1@"
1p
0o
0S!
11!
19!
1\
0]
0)
1(
#260000
0!
0H
0w
1R"
0,"
0+"
0-"
1*"
07!
0x
10!
1|
06!
1y
1{
0|
17!
0y
#270000
1!
1H
1w
0R"
0;"
0="
0<"
1:"
0j!
1A"
1o
0i
0y!
14!
09!
1/!
03!
1]
0c
0/
1)
#280000
0!
0H
0w
1R"
1-"
1x
00!
1y
#290000
1!
1H
1w
0R"
1="
0A"
0@"
0?"
1>"
1r
0q
0p
0o
1Z
0[
0\
0]
0)
0(
0'
1&
#300000
0!
1>
1<
19
17
0H
1U
1S
1P
1N
1I!
1N!
1$!
1(!
0w
1R"
1,"
0-"
0x
10!
0y
0{
1|
1y
1{
0|
#310000
1!
0>
0<
09
07
0=
0;
0:
08
1H
0U
0T
0S
0R
0Q
0P
0O
0N
0I!
0L!
0N!
0P!
0~
0$!
0&!
0(!
1w
0R"
0="
1<"
1A"
1o
01!
04!
1]
05!
0;!
00!
02!
1)
0>!
0y
0{
1|
07!
0|
16!
17!
#320000
0!
0H
0w
1R"
#330000
1!
1H
1w
0R"
0?!
0A"
1@"
1p
0o
0@!
1\
0]
0)
1(
#340000
0!
0H
0w
1R"
#350000
1!
1H
1w
0R"
0A!
0+!
#360000
0!
0H
0w
1R"
#370000
1!
1H
1w
0R"
0B!
0h
1z!
1|!
0d
00
#380000
0!
14
0H
1L
1C!
0w
1R"
#390000
1!
1H
1w
0R"
1{!
1}!
1k!
1y!
0z!
1r!
#400000
0!
0H
0w
1R"
#410000
1!
04
1H
0L
0C!
1w
0R"
1s!
0{!
0k!
0y!
1z!
1y!
1~!
1l!
1m!
0z!
#420000
0!
0H
0w
1R"
#430000
1!
1H
1w
0R"
16"
1n
1n!
0v!
1^
1*
#440000
0!
0H
0w
1R"
#450000
1!
1H
1w
0R"
17"
1m
1o!
1_
1+
#460000
0!
0H
0w
1R"
#470000
1!
1>
19
17
1=
18
1H
1U
1T
1P
1O
1N
1I!
1L!
1N!
1&!
1(!
1w
0R"
18"
1l
1p!
1`
1,
#480000
0!
0H
0w
1R"
#490000
1!
1H
1w
0R"
19"
1k
1q!
1a
0r!
1t!
1-
#500000
0!
15
0H
1M
1#"
0w
1R"
#510000
1!
1H
1w
0R"
0s!
1u!
1$"
0m!
0p!
#520000
0!
0H
0w
1R"
#530000
1!
05
1H
0M
0#"
1w
0R"
1%"
0$"
1j
1$"
1b
1.
#540000
0!
0H
0w
1R"
#550000
1!
15
1H
1M
1#"
1w
0R"
0$"
#560000
0!
0H
0w
1R"
#570000
1!
1H
1w
0R"
0%"
0j
1$"
0b
0.
#580000
0!
05
0H
0M
0#"
0w
1R"
0$"
#590000
1!
1H
1w
0R"
#600000
0!
0H
0w
1R"
#610000
1!
1H
1w
0R"
#620000
0!
13
0H
1K
1!!
0w
1R"
1!"
#630000
1!
1H
1w
0R"
1""
1g
1e
11
#640000
0!
0H
0w
1R"
#650000
1!
03
1H
0K
0!!
1w
0R"
#660000
0!
0H
0w
1R"
#670000
1!
1H
1w
0R"
#680000
0!
14
0H
1L
1C!
0w
1R"
0t!
1w!
#690000
1!
1H
1w
0R"
0u!
1x!
1m!
#700000
0!
0H
0w
1R"
#710000
1!
1H
1w
0R"
09"
0k
0o!
0q!
0a
0-
#720000
0!
04
0H
0L
0C!
0w
1R"
#730000
1!
1H
1w
0R"
08"
0l
0n!
0`
0,
#740000
0!
0H
0w
1R"
#750000
1!
1H
1w
0R"
07"
0m
0l!
0_
0+
#760000
0!
0H
0w
1R"
#770000
1!
1H
1w
0R"
06"
0n
1v!
0^
0w!
1z!
0*
#780000
0!
0H
0w
1R"
#790000
1!
13
1H
1K
1!!
1w
0R"
0x!
1{!
0y!
0~!
0m!
0z!
1"!
1J!
0!"
1z!
1K!
1M!
1O!
1'!
1)!
#800000
0!
0H
0w
1R"
#810000
1!
1H
1w
0R"
1D"
1E"
1&"
1'"
1("
0""
0g
0R!
0*!
0e
0}
1+!
1@!
0H!
1S!
1h!
01
0K!
0M!
0O!
1V!
0'!
0)!
1.!
#820000
0!
0H
0w
1R"
#830000
1!
03
1H
0K
0!!
1w
0R"
0D"
0E"
1M"
0J"
1A!
0&"
0'"
0("
1P"
0Q"
1N"
1i!
1H!
0h!
0W!
1[!
1Y!
1\!
1R!
1}
0@!
0-!
0/!
18!
11!
14!
1*!
10!
12!
1:!
0"!
1'!
1)!
0.!
0X!
1Z!
1c!
0J!
1K!
1M!
1O!
0V!
0K!
0M!
0O!
1f!
1]!
0'!
0)!
1<!
1>!
1E!
1F!
0G!
1_!
1G!
0^!
0_!
#840000
0!
0H
0w
1R"
0,"
1-"
14"
05"
0D!
1X!
0E!
0F!
1x
00!
1y
1{
1|
06!
0y
0{
0G!
1^!
1E!
1F!
1G!
0^!
1_!
0|
16!
07!
17!
0_!
#850000
1!
1H
1w
0R"
1="
0<"
1=!
1?!
0A!
1B!
01"
10"
1g!
0i!
1j!
1i
1h
1y!
0S!
0X!
0Z!
0Y!
0\!
0z!
0|!
0+!
10!
02!
1c
1d
0]!
10
1/
0E!
0F!
0G!
1^!
1_!
0_!
1G!
#860000
0!
0H
0w
1R"
#870000
1!
1H
1w
0R"
0B!
0j!
0{!
0}!
1A"
0@"
0I"
1H"
1t
0s
0p
1o
0i
0h
0y!
1|!
1X
0Y
0\
1]
0c
0d
1z!
00
0/
1)
0(
0%
1$
#880000
0!
0H
0w
1R"
#890000
1!
1H
1w
0R"
1{!
1}!
#900000
0!
0H
0w
1R"
#910000
1!
1H
1w
0R"
#920000
0!
0>
09
07
0=
08
0H
0U
0T
0P
0O
0N
0I!
0L!
0N!
0&!
0(!
0w
1R"
#930000
1!
1H
1w
0R"
#940000
0!
0H
0w
1R"
#950000
1!
1H
1w
0R"
#960000
0!
0H
0w
1R"
#970000
1!
1H
1w
0R"
#980000
0!
0H
0w
1R"
#990000
1!
1H
1w
0R"
